Sample	accession	assembly
P1169_101	ERX3761257	Assembly_2012
P1169_102	ERX3761258	Assembly_2012
P1169_103	ERX3761259	Assembly_2012
P1169_104	ERX3761260	Assembly_2012
P1169_105	ERX3761261	Assembly_2012
P1169_106	ERX3761262	Assembly_2012
P1169_107	ERX3761263	Assembly_2012
P1169_108	ERX3761264	Assembly_2012
P1169_109	ERX3761265	Assembly_2012
P1169_110	ERX3761266	Assembly_2012
P1169_111	ERX3761267	Assembly_2012
P1169_112	ERX3761268	Assembly_2012
P1169_113	ERX3761269	Assembly_2012
P1169_114	ERX3761270	Assembly_2012
P1169_115	ERX3761271	Assembly_2012
P1169_116	ERX3761272	Assembly_2012
P1169_117	ERX3761273	Assembly_2012
P1169_118	ERX3761274	Assembly_2012
P1169_119	ERX3761275	Assembly_2012
P1169_120	ERX3761276	Assembly_2012
P1169_121	ERX3761277	Assembly_2012
P1169_122	ERX3761278	Assembly_2012
P1169_123	ERX3761279	Assembly_2012
P1169_124	ERX3761280	Assembly_2012
P1169_125	ERX3761281	Assembly_2012
P1169_126	ERX3761282	Assembly_2012
P1169_127	ERX3761283	Assembly_2012
P1169_128	ERX3761284	Assembly_2012
P1169_130	ERX3761285	Assembly_2012
P1169_131	ERX3761286	Assembly_2012
P1169_132	ERX3761287	Assembly_2012
P1169_133	ERX3761288	Assembly_2012
P1169_134	ERX3761289	Assembly_2012
P1169_135	ERX3761290	Assembly_2012
P1169_136	ERX3761291	Assembly_2012
P1169_137	ERX3761292	Assembly_2012
P1169_138	ERX3761293	Assembly_2012
P1169_139	ERX3761294	Assembly_2012
P1169_140	ERX3761295	Assembly_2012
P1169_141	ERX3761296	Assembly_2012
P1169_142	ERX3761297	Assembly_2012
P1169_143	ERX3761298	Assembly_2012
P1169_144	ERX3761299	Assembly_2012
P1169_145	ERX3761300	Assembly_2012
P1169_146	ERX3761301	Assembly_2012
P1169_147	ERX3761302	Assembly_2012
P1169_148	ERX3761303	Assembly_2012
P1169_149	ERX3761304	Assembly_2012
P1169_150	ERX3761305	Assembly_2012
P1169_151	ERX3761306	Assembly_2012
P1169_152	ERX3761307	Assembly_2012
P1169_153	ERX3761308	Assembly_2012
P1169_154	ERX3761309	Assembly_2012
P1169_155	ERX3761310	Assembly_2012
P1169_156	ERX3761311	Assembly_2012
P1169_157	ERX3761312	Assembly_2012
P1169_158	ERX3761313	Assembly_2012
P1169_159	ERX3761314	Assembly_2012
P1169_160	ERX3761315	Assembly_2012
P1169_161	ERX3761316	Assembly_2012
P1169_162	ERX3761317	Assembly_2012
P1169_163	ERX3761318	Assembly_2012
P1169_164	ERX3761319	Assembly_2012
P1169_165	ERX3761320	Assembly_2012
P1169_166	ERX3761321	Assembly_2012
P1169_167	ERX3761322	Assembly_2012
P1169_168	ERX3761323	Assembly_2012
P1169_169	ERX3761324	Assembly_2012
P1169_170	ERX3761325	Assembly_2012
P1169_171	ERX3761326	Assembly_2012
P1169_172	ERX3761327	Assembly_2012
P1169_173	ERX3761328	Assembly_2012
P1169_174	ERX3761329	Assembly_2012
P1169_175	ERX3761330	Assembly_2012
P1169_176	ERX3761331	Assembly_2012
P1169_177	ERX3761332	Assembly_2012
P1169_179	ERX3761333	Assembly_2012
P1169_181	ERX3761334	Assembly_2012
P1169_182	ERX3761335	Assembly_2012
P1169_183	ERX3761336	Assembly_2012
P1169_184	ERX3761337	Assembly_2012
P1169_185	ERX3761338	Assembly_2012
P1169_186	ERX3761339	Assembly_2012
P1169_187	ERX3761340	Assembly_2012
P1169_188	ERX3761341	Assembly_2012
P1169_189	ERX3761342	Assembly_2012
P1169_190	ERX3761343	Assembly_2012
P1169_191	ERX3761344	Assembly_2012
P1169_192	ERX3761345	Assembly_2012
P1169_193	ERX3761346	Assembly_2012
P1169_194	ERX3761347	Assembly_2012
P1169_195	ERX3761348	Assembly_2012
P1169_196	ERX3761349	Assembly_2012
P1169_201	ERX3761350	Assembly_2012
P1169_202	ERX3761351	Assembly_2012
P1169_203	ERX3761352	Assembly_2012
P1169_204	ERX3761353	Assembly_2012
P1169_205	ERX3761354	Assembly_2012
P1169_206	ERX3761355	Assembly_2012
P1169_207	ERX3761356	Assembly_2012
P1169_208	ERX3761357	Assembly_2012
P1169_209	ERX3761358	Assembly_2012
P1169_210	ERX3761359	Assembly_2012
P1169_211	ERX3761360	Assembly_2012
P1169_212	ERX3761361	Assembly_2012
P1798_167	ERX3761362	Assembly_2012
P1798_178	ERX3761363	Assembly_2012
P7151_301	ERX3761364	Assembly_2012
P7151_302	ERX3761365	Assembly_2012
P7151_303	ERX3761366	Assembly_2012
P7151_304	ERX3761367	Assembly_2012
P7151_305	ERX3761368	Assembly_2012
P7151_306	ERX3761369	Assembly_2012
P7151_307	ERX3761370	Assembly_2012
P7151_308	ERX3761371	Assembly_2012
P7151_309	ERX3761372	Assembly_2012
P7151_310	ERX3761373	Assembly_2012
P7151_311	ERX3761374	Assembly_2012
P7151_312	ERX3761375	Assembly_2012
P7151_313	ERX3761376	Assembly_2012
P7151_314	ERX3761377	Assembly_2012
P7151_315	ERX3761378	Assembly_2012
P7151_316	ERX3761379	Assembly_2012
P7151_317	ERX3761380	Assembly_2012
P7151_318	ERX3761381	Assembly_2012
P7151_319	ERX3761382	Assembly_2012
P7151_320	ERX3761383	Assembly_2012
P7151_321	ERX3761384	Assembly_2012
P7151_322	ERX3761385	Assembly_2012
P7151_323	ERX3761386	Assembly_2012
P7151_324	ERX3761387	Assembly_2012
P7151_325	ERX3761388	Assembly_2012
P7151_326	ERX3761389	Assembly_2012
P7151_327	ERX3761390	Assembly_2012
P7151_328	ERX3761391	Assembly_2012
P7151_329	ERX3761392	Assembly_2012
P7151_330	ERX3761393	Assembly_2012
P7151_331	ERX3761394	Assembly_2012
P7151_332	ERX3761395	Assembly_2012
P7151_333	ERX3761396	Assembly_2012
P7151_334	ERX3761397	Assembly_2012
P7151_335	ERX3761398	Assembly_2012
P7151_336	ERX3761399	Assembly_2012
P7151_337	ERX3761400	Assembly_2012
P7151_338	ERX3761401	Assembly_2012
P7151_339	ERX3761402	Assembly_2012
P7151_340	ERX3761403	Assembly_2012
P7151_341	ERX3761404	Assembly_2012
P7151_342	ERX3761405	Assembly_2012
P7151_343	ERX3761406	Assembly_2012
P7151_344	ERX3761407	Assembly_2012
P7151_345	ERX3761408	Assembly_2012
P7151_346	ERX3761409	Assembly_2012
P7151_347	ERX3761410	Assembly_2012
P7151_348	ERX3761411	Assembly_2012
P7151_349	ERX3761412	Assembly_2012
P7151_350	ERX3761413	Assembly_2012
P7151_351	ERX3761414	Assembly_2012
P7151_352	ERX3761415	Assembly_2012
P7151_353	ERX3761416	Assembly_2012
P7151_354	ERX3761417	Assembly_2012
P7151_355	ERX3761418	Assembly_2012
P7151_356	ERX3761419	Assembly_2012
P7151_357	ERX3761420	Assembly_2012
P7151_358	ERX3761421	Assembly_2012
P7151_359	ERX3761422	Assembly_2012
P7151_360	ERX3761423	Assembly_2012
P7151_361	ERX3761424	Assembly_2012
P7151_362	ERX3761425	Assembly_2012
P7151_363	ERX3761426	Assembly_2012
P7151_364	ERX3761427	Assembly_2012
P7151_365	ERX3761428	Assembly_2012
P7151_366	ERX3761429	Assembly_2012
P7151_367	ERX3761430	Assembly_2012
P7151_368	ERX3761431	Assembly_2012
P7151_369	ERX3761432	Assembly_2012
P7151_370	ERX3761433	Assembly_2012
P7151_371	ERX3761434	Assembly_2012
P7151_372	ERX3761435	Assembly_2012
P7151_373	ERX3761436	Assembly_2012
P7151_374	ERX3761437	Assembly_2012
P7151_375	ERX3761438	Assembly_2012
P7151_376	ERX3761439	Assembly_2012
P7151_377	ERX3761440	Assembly_2012
P7151_378	ERX3761441	Assembly_2012
P7151_379	ERX3761442	Assembly_2012
P7151_380	ERX3761443	Assembly_2012
P7151_381	ERX3761444	Assembly_2012
P7151_382	ERX3761445	Assembly_2012
P7151_383	ERX3761446	Assembly_2012
P7151_384	ERX3761447	Assembly_2012
P7151_385	ERX3761448	Assembly_2012
P7151_386	ERX3761449	Assembly_2012
P7151_387	ERX3761450	Assembly_2012
P7151_388	ERX3761451	Assembly_2012
P7151_389	ERX3761452	Assembly_2012
P7151_390	ERX3761453	Assembly_2012
P7151_391	ERX3761454	Assembly_2012
P7151_392	ERX3761455	Assembly_2012
P7151_393	ERX3761456	Assembly_2012
P7151_394	ERX3761457	Assembly_2012
P7151_395	ERX3761458	Assembly_2012
P7151_396	ERX3761459	Assembly_2012
P7151_401	ERX3761460	Assembly_2012
P7151_402	ERX3761461	Assembly_2012
P7151_403	ERX3761462	Assembly_2012
P7151_404	ERX3761463	Assembly_2012
P7151_405	ERX3761464	Assembly_2012
P7151_406	ERX3761465	Assembly_2012
P7151_407	ERX3761466	Assembly_2012
P7151_408	ERX3761467	Assembly_2012
P7151_409	ERX3761468	Assembly_2012
P7151_410	ERX3761469	Assembly_2012
P7151_411	ERX3761470	Assembly_2012